Using mean squared error vs hypothesis testing
…
When there is only bias, sample size needs to be very large or effect needs to be large before sib gives lower MSE

Overall this is a bit arbitrary, approach slightly differently. For a likely genetic architecture, and for some genome-wide inflation of estimates,

how does average MSE change as sample size increases?

Integrate genetic architecture

nsnp <- 10000
map <- tibble(snp=1:nsnp, af=runif(nsnp, 0.01, 0.99))
params <- generate_gwas_params(map=map, h2=0.4, S=-0.4, Pi=1)
params

# A tibble: 10,000 × 3
     snp     af      beta
   <int>  <dbl>     <dbl>
 1     1 0.572   0.00133 
 2     2 0.116  -0.0207  
 3     3 0.564  -0.0152  
 4     4 0.206   0.0110  
 5     5 0.810  -0.0116  
 6     6 0.837   0.0316  
 7     7 0.846  -0.000610
 8     8 0.971  -0.0270  
 9     9 0.364   0.00631 
10    10 0.0852 -0.00326 
# … with 9,990 more rows
…
      pow_sibimp = sum(pow_sibimp),
      pow_pop = sum(pow_pop),
      pow_ratio = sum(pow_sibimp) / sum(pow_pop)
    ) %>%
    bind_cols(., args)
}
param <- expand.grid(
  n = seq(100000, 5000000, 100000),
  prop_d = seq(0.5, 1, by=0.1)
)
o <- sim3(params, 100000, 0.4, 1)
res3 <- lapply(1:nrow(param), function(i) sim3(params, param$n[i], 0.4, param$prop_d[i])) %>% bind_rows()
res3

# A tibble: 1,500 × 9
   rsq_bin                  n mse_r…¹ pow_s…² pow_pop pow_r…³     N    h2 prop_d
   <fct>                <int>   <dbl>   <dbl>   <dbl>   <dbl> <dbl> <dbl>  <dbl>
 1 (-6.67e-07,0.000133]  9285  1.26     0.477  1178.  4.05e-4   1e5   0.4    0.5
 2 (0.000133,0.000267]    590  0.140    2.71    588.  4.62e-3   1e5   0.4    0.5
 3 (0.000267,0.0004]       87  0.0823   2.77     87.0 3.18e-2   1e5   0.4    0.5
 4 (0.0004,0.000534]       30  0.0576   3.56     30.0 1.19e-1   1e5   0.4    0.5
 5 (0.000534,0.000668]      8  0.0434   2.34      8   2.92e-1   1e5   0.4    0.5
 6 (-6.67e-07,0.000133]  9285  0.995    6.30   2676.  2.35e-3   2e5   0.4    0.5
 7 (0.000133,0.000267]    590  0.0717  39.3     590.  6.67e-2   2e5   0.4    0.5
 8 (0.000267,0.0004]       87  0.0418  28.5      87   3.28e-1   2e5   0.4    0.5
 9 (0.0004,0.000534]       30  0.0291  20.7      30   6.91e-1   2e5   0.4    0.5
10 (0.000534,0.000668]      8  0.0219   7.33      8   9.16e-1   2e5   0.4    0.5
# … with 1,490 more rows, and abbreviated variable names ¹​mse_ratio,
#   ²​pow_sibimp, ³​pow_ratio
…
